{
  "title": "Mathieu PITON | Senior Full Stack Developer",
  "description": "Mathieu PITON - Portfolio, Full stack developer",
  "url": "https://mathieu-piton.com/",
  "author": "Mathieu PITON",
  "resume": "/assets/cv.pdf",
  "nav": [
    { "id": 1, "link": "/#projets", "name": "Projets" },
    { "id": 3, "link": "/#contact", "name": "Contact" }
  ],
  "work": [
    {
      "id": 1,
      "description": "2016 - Intégration de cette maquette sous WordPress",
      "image": "../assets/projects/aspects-maquette.jpg"
    },
    {
      "id": 2,
      "description": "2019 - Création d'un réseau social type Twitter sous ReactJS, Express et MongoDB",
      "image": "../assets/projects/rezo-4o4.png"
    },
    {
      "id": 3,
      "description": "2020 - Création d'un intranet pour une école sous la stack MERN (MongoDB, Express, ReactJS, NodeJS)",
      "image": "../assets/projects/projet-ifpa.png"
    },
    {
      "id": 4,
      "description": "2022 - Création de la partie frontend d'un intranet pour une banque sous ReactJS",
      "image": "../assets/projects/ophra.png"
    }
  ]
}
